1 2 0.5
1 3 0.5
1 4 1
1 5 0.2
1 6 0.8
7 8 0.2
7 9 0.1
7 10 0.9
7 11 0.2
7 12 0.4
7 13 0.8
7 14 0.5
7 15 1
7 16 0.5
7 17 0.3
7 18 0.6
7 19 0.8
7 20 0.6
21 22 0.9
21 23 0.9
21 14 0.3
21 24 0.9
21 25 1
21 26 0.6
